<?xml version="1.0" encoding="UTF-8"?>
<symbol version="7" name="PC">
    <symboltype>BLOCK</symboltype>
    <timestamp>2018-10-11T16:7:44</timestamp>
    <pin polarity="Input" x="0" y="-288" name="clk" />
    <pin polarity="Input" x="0" y="-224" name="reset" />
    <pin polarity="Input" x="0" y="-160" name="cargaPC" />
    <pin polarity="Input" x="0" y="-96" name="incrementaPC" />
    <pin polarity="Input" x="0" y="-32" name="entradaPC(7:0)" />
    <pin polarity="Output" x="448" y="-288" name="saidaPC(7:0)" />
    <graph>
        <rect width="320" x="64" y="-320" height="320" />
        <attrtext style="alignment:BCENTER;fontsize:56;fontname:Arial" attrname="SymbolName" x="224" y="-328" type="symbol" />
        <attrtext style="fontsize:24;fontname:Arial" attrname="PinName" x="72" y="-288" type="pin clk" />
        <line x2="0" y1="-288" y2="-288" x1="64" />
        <attrtext style="fontsize:24;fontname:Arial" attrname="PinName" x="72" y="-224" type="pin reset" />
        <line x2="0" y1="-224" y2="-224" x1="64" />
        <attrtext style="fontsize:24;fontname:Arial" attrname="PinName" x="72" y="-160" type="pin cargaPC" />
        <line x2="0" y1="-160" y2="-160" x1="64" />
        <attrtext style="fontsize:24;fontname:Arial" attrname="PinName" x="72" y="-96" type="pin incrementaPC" />
        <line x2="0" y1="-96" y2="-96" x1="64" />
        <attrtext style="fontsize:24;fontname:Arial" attrname="PinName" x="72" y="-32" type="pin entradaPC(7:0)" />
        <rect width="64" x="0" y="-44" height="24" />
        <line x2="0" y1="-32" y2="-32" x1="64" />
        <attrtext style="alignment:RIGHT;fontsize:24;fontname:Arial" attrname="PinName" x="376" y="-288" type="pin saidaPC(7:0)" />
        <rect width="64" x="384" y="-300" height="24" />
        <line x2="448" y1="-288" y2="-288" x1="384" />
    </graph>
</symbol>
