memory_initialization_radix = 10;
memory_initialization_vector =
0, 
32, 
80,
192, 
84, 
16, 
88, 
32, 
82, 
192, 
85, 
16, 
89, 
32, 
80, 
192, 
86, 
16, 
90, 
32, 
82, 
192, 
87, 
16, 
91, 
32, 
81, 
192, 
84, 
16, 
92, 
32, 
83, 
192, 
85, 
16, 
93, 
32, 
81, 
192, 
86, 
16, 
94, 
32, 
83, 
192, 
87, 
16, 
95,
32, 
88, 
48, 
89, 
16,
96, 
32, 
90, 
48, 
91, 
16,
97,
32,
92,
48,
93,
16,
98,
32,
94,
48,
95,
16,
99,
240,
0,
0,
0,
0,
0,
0,  
1, 
2, 
3, 
4, 
1, 
2, 
3, 
4,
0;